MA [46]15 Final Project --- TEAM 14 – untitledqmd
…
[1] 247

there are 239 subcategories for all 63 crimes

category_details <- ds %>%
  group_by(OFNS_DESC) %>%
  summarise(PD_DESC_Details = paste(unique(PD_DESC), split= "", collapse = ", ")) %>%
  ungroup() %>%
  arrange(OFNS_DESC)

print(category_details)

# A tibble: 63 × 2
   OFNS_DESC                            PD_DESC_Details                         
   <chr>                                <chr>                                   
 1 ADMINISTRATIVE CODE                  "ADM.CODE,UNCLASSIFIED MISDEMEA , ALCOH…
 2 ADMINISTRATIVE CODES                 "NOISE,UNECESSARY "                     
 3 AGRICULTURE & MRKTS LAW-UNCLASSIFIED "TORTURE/INJURE ANIMAL CRUELTY , ABANDO…
 4 ALCOHOLIC BEVERAGE CONTROL LAW       "ALCOHOLIC BEVERAGE CONTROL LAW "       
 5 ANTICIPATORY OFFENSES                "CONSPIRACY 6, 5 , FACILITATION 4, CRIM…
 6 ARSON                                "ARSON 2,3,4 , ARSON 1 "                
 7 ASSAULT 3 & RELATED OFFENSES         "ASSAULT 3 , MENACING,UNCLASSIFIED , OB…
 8 BURGLAR'S TOOLS                      "BURGLARS TOOLS,UNCLASSIFIED "          
 9 BURGLARY                             "BURGLARY,UNCLASSIFIED,UNKNOWN , BURGLA…
10 CANNABIS RELATED OFFENSES            "CANNABIS SALE, 3 , CANNABIS POSSESSION…
# ℹ 53 more rows
…
