MA [46]15 Final Project — TEAM 14 - Second Blog Post
…
ds|>
count(PERP_SEX)

# A tibble: 3 × 2
  PERP_SEX      n
  <chr>     <int>
1 F         39278
2 M        182504
3 U          3491

ds|> 
  count(PD_DESC)

# A tibble: 239 × 2
   PD_DESC                             n
   <chr>                           <int>
 1 (null)                             17
 2 A.B.C.,FALSE PROOF OF AGE           2
 3 ABANDON ANIMAL                      2
 4 ACCOSTING,FRAUDULENT               55
 5 ADM.CODE,UNCLASSIFIED MISDEMEA     14
 6 ADM.CODE,UNCLASSIFIED VIOLATIO     34
 7 AGGRAVATED CRIMINAL CONTEMPT      292
 8 AGGRAVATED GRAND LARCENY OF ATM   191
 9 AGGRAVATED HARASSMENT 1           110
10 AGGRAVATED HARASSMENT 2          3408
# ℹ 229 more rows
…
[1] 239

there are 239 subcategories for all 63 crimes

category_details <- ds %>%
  group_by(OFNS_DESC) %>%
  summarise(PD_DESC_Details = paste(unique(PD_DESC), split= "", collapse = ", ")) %>%
  ungroup() %>%
  arrange(OFNS_DESC)

print(category_details)

# A tibble: 63 × 2
   OFNS_DESC                            PD_DESC_Details                         
   <chr>                                <chr>                                   
 1 (null)                               "(null) "                               
 2 ADMINISTRATIVE CODE                  "ADM.CODE,UNCLASSIFIED VIOLATIO , ALCOH…
 3 ADMINISTRATIVE CODES                 "NOISE,UNECESSARY "                     
 4 AGRICULTURE & MRKTS LAW-UNCLASSIFIED "TORTURE/INJURE ANIMAL CRUELTY , ABANDO…
 5 ALCOHOLIC BEVERAGE CONTROL LAW       "ALCOHOLIC BEVERAGE CONTROL LAW "       
 6 ANTICIPATORY OFFENSES                "CONSPIRACY 6, 5 , FACILITATION 4, CRIM…
 7 ARSON                                "ARSON 2,3,4 , ARSON 1 "                
 8 ASSAULT 3 & RELATED OFFENSES         "ASSAULT 3 , MENACING,UNCLASSIFIED , OB…
 9 BURGLAR'S TOOLS                      "BURGLARS TOOLS,UNCLASSIFIED "          
10 BURGLARY                             "BURGLARY,UNCLASSIFIED,UNKNOWN , BURGLA…
# ℹ 53 more rows
