…
    [1] 225273     13

``` r
dim(ds) 
```

    [1] 225273     13

``` r
ds
```

    # A tibble: 225,273 × 13
       ARREST_DATE PD_DESC   OFNS_DESC LAW_CAT_CD ARREST_PRECINCT AGE_GROUP PERP_SEX
       <chr>       <chr>     <chr>     <chr>                <dbl> <chr>     <chr>   
     1 01/03/2023  ROBBERY,… ROBBERY   F                       49 18-24     M       
     2 01/03/2023  STRANGUL… FELONY A… F                      120 25-44     M       
     3 01/04/2023  ROBBERY,… ROBBERY   F                       61 <18       M       
     4 01/04/2023  STRANGUL… FELONY A… F                      114 18-24     M       
     5 01/05/2023  BURGLARY… BURGLARY  F                       44 25-44     F       
     6 01/08/2023  ASSAULT … FELONY A… F                       76 25-44     M       
     7 01/09/2023  ARSON 2,… ARSON     F                       49 25-44     M       
     8 01/14/2023  ASSAULT … FELONY A… F                       90 25-44     M       
     9 01/14/2023  ARSON 2,… ARSON     F                       63 25-44     M       
    10 02/03/2023  STRANGUL… FELONY A… F                       34 25-44     M       
    # ℹ 225,263 more rows
    # ℹ 6 more variables: PERP_RACE <chr>, X_COORD_CD <dbl>, Y_COORD_CD <dbl>,
    #   Latitude <dbl>, Longitude <dbl>, `New Georeferenced Column` <chr>
…
